{
  "$schema": "https://wails.io/schemas/config.v2.json",
  "name": "Excel Formatter",
  "outputfilename": "excel-formatter",
  "frontend:install": "npm install",
  "frontend:build": "npm run build",
  "frontend:dev:watcher": "npm run dev",
  "frontend:dev:serverUrl": "auto",
  "author": {
    "name": "Robert-Jan Kuyper",
    "email": "info@datails.nl"
  }
}
